%YAML 1.1
%TAG !u! tag:unity3d.com,2011:
--- !u!114 &11400000
MonoBehaviour:
  m_ObjectHideFlags: 0
  m_CorrespondingSourceObject: {fileID: 0}
  m_PrefabInstance: {fileID: 0}
  m_PrefabAsset: {fileID: 0}
  m_GameObject: {fileID: 0}
  m_Enabled: 1
  m_EditorHideFlags: 0
  m_Script: {fileID: 11500000, guid: 4edb55409cb0d9e4f963fc02ae320229, type: 3}
  m_Name: Config_Game
  m_EditorClassIdentifier: 
  GameResetTimer: 3
  MinObstacleSpawnDelay: 2
  MaxObstacleSpawnDelay: 4
  InitialObstacleSpawnDelay: 3
  ObstacleSpawnPositionY: 7.75
  ObstacleMovementSpeedMin: 1.5
  ObstacleMovementSpeedMax: 3.5
  ObstacleCollisionRadius: 0.3
  SceneBounds: -6
  ObstacleSprites:
  - {fileID: 21300000, guid: 10e36d65a2b0f654a805687c41723ab8, type: 3}
  - {fileID: 21300000, guid: b1b77d0518a2842449d01b3b3c4a6d6b, type: 3}
  - {fileID: 21300000, guid: d0b02780c0b8c214ea8ee42b01164a5e, type: 3}
  - {fileID: 21300000, guid: 4f88d67cabc367a44a0cd098d532fdde, type: 3}
  - {fileID: 21300000, guid: c716ce78868be7647ac228fcee6fd936, type: 3}
  - {fileID: 21300000, guid: 82651ef585d67eb4b8f4e1ab67fcd330, type: 3}
  - {fileID: 21300000, guid: ce25cbf34a1088340a951e2e9cfa9765, type: 3}
  - {fileID: 21300000, guid: 16ba33f1dc0334e4e997712fe65818a3, type: 3}
  - {fileID: 21300000, guid: 17a2a413b165b7446adf3642c44e14aa, type: 3}
  - {fileID: 21300000, guid: 21d5a000b931b4347856c79714221a56, type: 3}
  - {fileID: 21300000, guid: 6e005d93a6b965144930fa6f7ba2ce7d, type: 3}
  - {fileID: 21300000, guid: 9587bc18ee24d9f4a94266adb1895ed0, type: 3}
  - {fileID: 21300000, guid: c5015a3b31876d04f8b8057c031b277f, type: 3}
  - {fileID: 21300000, guid: a79ae3a231ea50e43b0b32ee4cf6b710, type: 3}
  - {fileID: 21300000, guid: b83eedd7e9e4fc0428bbaff42b48ba7e, type: 3}
  - {fileID: 21300000, guid: 9c6b41ba0f0d29c459c02c7d12f9a209, type: 3}
  - {fileID: 21300000, guid: 4b5a83cfb7529e145af118c076d02ec0, type: 3}
  PlayerMovementEase: 18
  PlayerMoveDuration: 0.4
  PlayerMoveInputThreshold: 0.1
  PlayerInitialYPosition: -3.1
  PlayerPositions:
  - -1.5
  - 0
  - 1.5
  PlayerInitialPosition: 1
  PlayerCollisionRadius: 0.15
  BackgroundScrollSpeed: 0.2
