%YAML 1.1
%TAG !u! tag:unity3d.com,2011:
--- !u!114 &11400000
MonoBehaviour:
  m_ObjectHideFlags: 0
  m_CorrespondingSourceObject: {fileID: 0}
  m_PrefabInstance: {fileID: 0}
  m_PrefabAsset: {fileID: 0}
  m_GameObject: {fileID: 0}
  m_Enabled: 1
  m_EditorHideFlags: 0
  m_Script: {fileID: 11500000, guid: bd3fd7e781c0a7841a851f4ee7d48f82, type: 3}
  m_Name: Config_Systems
  m_EditorClassIdentifier: 
  Systems:
  - SystemName: BackgroundInitializerSystem
  - SystemName: PlayerInitializerSystem
  - SystemName: PlayerControllerSystem
  - SystemName: EntityMovementSystem
  - SystemName: EntityCollisionSystem
  - SystemName: EntityCollisionResolverSystem
  - SystemName: ObstacleCheckInsideSceneSystem
  - SystemName: ObstacleGeneratorSystem
  - SystemName: ObstacleRenderSystem
  - SystemName: GameStateManagerSystem
  - SystemName: GameplayStateSystem
  - SystemName: GameLoseStateSystem
  - SystemName: MenuStateSystem
  - SystemName: UserInterfaceSystem
  - SystemName: EntityCleanerSystem
